filename,p11_f8_t1,p11_f8_t2,p11_f8_t3,p11_f9_t1,p11_f9_t2,p11_f9_t3,p11_f10_t1,p11_f10_t2,p11_f10_t3,p11_f11_t1,p11_f11_t2,p11_f11_t3,p12_f8_t1,p12_f8_t2,p12_f8_t3,p12_f9_t1,p12_f9_t2,p12_f9_t3,p12_f10_t1,p12_f10_t2,p12_f10_t3,p12_f11_t1,p12_f11_t2,p12_f11_t3,p13_f8_t1,p13_f8_t2,p13_f8_t3,p13_f9_t1,p13_f9_t2,p13_f9_t3,p13_f10_t1,p13_f10_t2,p13_f10_t3,p13_f11_t1,p13_f11_t2,p13_f11_t3,p14_f8_t1,p14_f8_t2,p14_f8_t3,p14_f9_t1,p14_f9_t2,p14_f9_t3,p14_f10_t1,p14_f10_t2,p14_f10_t3,p14_f11_t1,p14_f11_t2,p14_f11_t3,p15_f8_t1,p15_f8_t2,p15_f8_t3,p15_f9_t1,p15_f9_t2,p15_f9_t3,p15_f10_t1,p15_f10_t2,p15_f10_t3,p15_f11_t1,p15_f11_t2,p15_f11_t3,p16_f8_t1,p16_f8_t2,p16_f8_t3,p16_f9_t1,p16_f9_t2,p16_f9_t3,p16_f10_t1,p16_f10_t2,p16_f10_t3,p16_f11_t1,p16_f11_t2,p16_f11_t3,p11_f8_cca_max_mean,p11_f9_cca_max_mean,p11_f10_cca_max_mean,p11_f11_cca_max_mean,p12_f8_cca_max_mean,p12_f9_cca_max_mean,p12_f10_cca_max_mean,p12_f11_cca_max_mean,p13_f8_cca_max_mean,p13_f9_cca_max_mean,p13_f10_cca_max_mean,p13_f11_cca_max_mean,p14_f8_cca_max_mean,p14_f9_cca_max_mean,p14_f10_cca_max_mean,p14_f11_cca_max_mean,p15_f8_cca_max_mean,p15_f9_cca_max_mean,p15_f10_cca_max_mean,p15_f11_cca_max_mean,p16_f8_cca_max_mean,p16_f9_cca_max_mean,p16_f10_cca_max_mean,p16_f11_cca_max_mean,,"CCA MEAN (ALL PATTERNS, ALL FREQ)"
DK0006_10_12_1947_mfssvep_left_2,0.178053083,0.164846996,0.180956373,0.45735505,0.247367484,0.367571932,0.257264203,0.158555772,0.250577766,0.302876003,0.163862107,0.159175401,0.217682443,0.170038165,0.180941587,0.165778778,0.323128876,0.418050132,0.205409597,0.166552398,0.236271489,0.18429262,0.176922799,0.182785344,0.185351975,0.234406288,0.135132323,0.380011653,0.149418227,0.164870585,0.165939829,0.149358846,0.278401882,0.126888824,0.173485104,0.145686085,0.154626235,0.341452423,0.205968282,0.349976417,0.184318946,0.212125561,0.217634412,0.201348603,0.272365964,0.157394188,0.188556994,0.188674745,0.190402602,0.228875863,0.214714187,0.549182046,0.17287773,0.208699046,0.164434821,0.206936673,0.232628147,0.141383468,0.154141004,0.16326611,0.16886169,0.142701257,0.174364745,0.152846077,0.164473707,0.270600448,0.189742773,0.21447327,0.214977652,0.184084058,0.17353937,0.166969006,0.174618817,0.357431489,0.222132581,0.208637837,0.189554065,0.302319262,0.202744495,0.181333588,0.184963529,0.231433488,0.197900186,0.148686671,0.234015646,0.248806975,0.23044966,0.178208642,0.211330884,0.310252941,0.201333214,0.152930194,0.161975898,0.195973411,0.206397898,0.174864145,,0.212845646
DK0006_10_12_1947_mfssvep_right_2,0.200313752,0.213166243,0.170849132,0.162524126,0.240642929,0.149037378,0.202771262,0.28752219,0.282791356,0.153257876,0.185638712,0.202208911,0.200825265,0.147307028,0.148810657,0.24604576,0.475613309,0.157530641,0.179867769,0.201381496,0.147382288,0.17585939,0.200831394,0.118246926,0.250240395,0.16068232,0.180490498,0.435670351,0.134775059,0.168975756,0.154737561,0.239693722,0.223186383,0.160082658,0.135750421,0.205983577,0.213671642,0.18578292,0.146626583,0.278054615,0.313371467,0.143575639,0.257898154,0.249091663,0.380215818,0.190812832,0.212460558,0.122135098,0.209373061,0.203431096,0.174202135,0.457474415,0.43958012,0.151597991,0.206740134,0.257783517,0.2457279,0.187149127,0.203810436,0.146093017,0.258147443,0.18571546,0.159543983,0.275587091,0.218465347,0.32666241,0.303290421,0.523640146,0.314086926,0.199528254,0.17430045,0.158548242,0.194776375,0.184068144,0.257694936,0.1803685,0.16564765,0.293063237,0.176210518,0.164979237,0.197137738,0.246473722,0.205872555,0.167272219,0.182027048,0.245000574,0.295735212,0.175136163,0.195668764,0.349550842,0.236750517,0.179017527,0.201135629,0.273571616,0.380339164,0.177458982,,0.221873203
DK0015_05_30_1949_mfssvep_left_1,0.219050337,0.168176589,0.200369711,0.181881296,0.268974572,0.185590345,0.125957421,0.19815741,0.166627213,0.148782763,0.148046043,0.140785557,0.196900464,0.179182149,0.269030317,0.175953337,0.228498278,0.214258426,0.171070278,0.14550517,0.161885456,0.149031875,0.148626683,0.166528712,0.187555874,0.197083581,0.171387859,0.214609851,0.150874144,0.140927138,0.190502211,0.176992727,0.189868282,0.170530982,0.150827202,0.146519684,0.159418159,0.234661101,0.219412139,0.161959094,0.190844875,0.225080437,0.127033219,0.175542789,0.180849517,0.129772085,0.149453148,0.147550175,0.146774849,0.226969106,0.17208951,0.158529746,0.16435244,0.194511911,0.17559117,0.2413299,0.202489546,0.180733966,0.219193016,0.21097354,0.180366329,0.220791752,0.212326842,0.196431237,0.178869828,0.196705442,0.114980115,0.139955393,0.142804281,0.145132677,0.126604112,0.178018557,0.195865545,0.212148738,0.163580682,0.145871454,0.215037643,0.20623668,0.159486968,0.15472909,0.185342438,0.168803711,0.18578774,0.155959289,0.204497133,0.192628135,0.161141842,0.142258469,0.181944488,0.172464699,0.206470206,0.203633507,0.204494975,0.190668836,0.13257993,0.149918449,,0.17881461
DK0015_05_30_1949_mfssvep_left_2,0.156413455,0.209644953,0.251454491,0.163045505,0.215281032,0.213835607,0.11012769,0.133110892,0.144463121,0.15274647,0.1416219,0.156618774,0.282653054,0.15549253,0.209486286,0.201538885,0.152240502,0.189478093,0.209639195,0.157913483,0.151451369,0.159105455,0.141545258,0.225642708,0.189363027,0.216358979,0.204632535,0.202674177,0.160496327,0.230023518,0.157227989,0.243429176,0.197969405,0.094462876,0.154436873,0.189687474,0.181678913,0.208696378,0.155666703,0.169100606,0.205376477,0.224106978,0.196117018,0.144259119,0.148049485,0.206825034,0.226406725,0.185027454,0.256734704,0.242402401,0.216155827,0.147112308,0.19671548,0.206666932,0.161115539,0.166293291,0.182373714,0.16401787,0.196852812,0.160215877,0.181781385,0.17416331,0.189489605,0.211224665,0.177926985,0.163291412,0.210301833,0.160507346,0.15807268,0.120023249,0.163572981,0.188673245,0.205837633,0.197387382,0.129233901,0.150329048,0.21587729,0.181085827,0.173001349,0.17543114,0.203451514,0.197731341,0.19954219,0.146195741,0.182013998,0.19952802,0.162808541,0.206086404,0.238430977,0.18349824,0.169927515,0.173695519,0.181811433,0.184147687,0.176293953,0.157423158,,0.182948742
DK0015_05_30_1949_mfssvep_right_1,0.188088788,0.210834372,0.198033255,0.14846967,0.215676659,0.184135691,0.176189928,0.174144787,0.230038272,0.133170208,0.175927286,0.225444833,0.185573106,0.173084785,0.212089663,0.189270846,0.202128716,0.265116724,0.144523055,0.160810731,0.17511086,0.120033591,0.168782745,0.172852251,0.214681507,0.239303362,0.284737638,0.20685356,0.198675914,0.162914511,0.130615853,0.15819803,0.132891956,0.112962552,0.14547612,0.128445236,0.18349019,0.173502503,0.208934737,0.168916669,0.220713271,0.206683003,0.208725849,0.196207617,0.195530947,0.182832819,0.14906466,0.162193469,0.179364109,0.19235941,0.309532061,0.129362759,0.181312988,0.195280952,0.203335085,0.168442495,0.235076248,0.181091952,0.133861816,0.175339662,0.199373611,0.352806194,0.219703665,0.197786292,0.237869394,0.18507308,0.256618563,0.219568969,0.198102271,0.150897283,0.176810167,0.217945042,0.198985472,0.182760673,0.193457662,0.178180776,0.190249184,0.218838762,0.160148216,0.153889529,0.246240836,0.189481328,0.140568613,0.128961303,0.188642477,0.198770981,0.200154804,0.164696982,0.227085193,0.168652233,0.202284609,0.163431144,0.25729449,0.206909589,0.224763267,0.181884164,,0.190263845
DK0015_05_30_1949_mfssvep_right_2,0.217781583,0.180775054,0.239001802,0.194554273,0.202825143,0.185532471,0.105563575,0.19350966,0.164417436,0.149384289,0.16625846,0.150020847,0.195836184,0.167353218,0.203266119,0.152685884,0.188429402,0.143818714,0.164466982,0.150340586,0.186519141,0.137391477,0.197045792,0.16859957,0.169257559,0.176708328,0.16990402,0.161686383,0.159561458,0.233065719,0.17424834,0.152780908,0.210382252,0.1146589,0.139344358,0.237649495,0.114836821,0.161625124,0.174966719,0.164775248,0.169226837,0.202272318,0.197693091,0.209662613,0.140481202,0.147880571,0.131461782,0.128979077,0.215549733,0.215062478,0.15380498,0.247050573,0.145816431,0.146983751,0.120993948,0.213480905,0.163391892,0.200818076,0.131404192,0.1489749,0.198848213,0.168512755,0.165065135,0.267360572,0.172886572,0.191620368,0.143879813,0.197449943,0.165252082,0.139207585,0.225417679,0.134965273,0.212519479,0.194303962,0.15449689,0.155221199,0.188818507,0.161644667,0.167108903,0.167678946,0.171956636,0.184771187,0.179137167,0.163884251,0.150476221,0.178758135,0.182612302,0.136107144,0.19480573,0.179950252,0.165955582,0.160399056,0.177475368,0.210622504,0.168860612,0.166530179,,0.17392062
DK0046_10_28_1943_mfssvep_left_1,0.13009641,0.133704796,0.163137955,0.176834261,0.149000145,0.200249419,0.179905838,0.184516879,0.181590663,0.153645906,0.16547747,0.210627941,0.119621892,0.163603622,0.156673065,0.162863372,0.211056832,0.149390583,0.162266009,0.147259794,0.151813424,0.116254965,0.106122398,0.143334612,0.170300106,0.129632895,0.13742404,0.143758443,0.143998362,0.157075012,0.164840979,0.147261263,0.165512114,0.14689779,0.133608902,0.150996993,0.155338245,0.149951872,0.164199112,0.211789555,0.185390375,0.179744103,0.11307608,0.180987745,0.175903547,0.144670297,0.123341841,0.150455407,0.153109122,0.162250243,0.173717489,0.13992446,0.212229123,0.140024507,0.286359739,0.161110716,0.132973237,0.137883893,0.149570635,0.109724642,0.153388568,0.147992176,0.131666959,0.215968918,0.126402209,0.14691095,0.117992525,0.178674707,0.177581619,0.174946195,0.127343773,0.119669624,0.142313054,0.175361275,0.18200446,0.176583772,0.14663286,0.174436929,0.153779742,0.121903992,0.14578568,0.148277272,0.159204785,0.143834561,0.15649641,0.192308011,0.156655791,0.139489182,0.163025618,0.164059363,0.193481231,0.132393057,0.144349234,0.163094026,0.15808295,0.140653198,,0.157258602
DK0046_10_28_1943_mfssvep_left_2,0.117140351,0.127663899,0.206314312,0.13831346,0.134745362,0.171148168,0.100150741,0.147226294,0.21587285,0.112459931,0.148969165,0.161351882,0.163595436,0.154599463,0.193740339,0.19544478,0.175014499,0.158132171,0.121349764,0.14098847,0.145966584,0.155712912,0.153222649,0.218106526,0.150262018,0.166259911,0.193825942,0.110169493,0.167640445,0.144050347,0.132139433,0.134428084,0.1573743,0.158254579,0.14490268,0.162236223,0.161083983,0.186154982,0.142921317,0.154251336,0.210151728,0.148347285,0.118238565,0.177260165,0.151774932,0.166777689,0.115468574,0.105594011,0.136188564,0.173368478,0.163569205,0.147963933,0.14069081,0.179610562,0.147017645,0.198167849,0.122884848,0.131096491,0.180617406,0.121046838,0.132562337,0.164285774,0.165868649,0.088475961,0.160821683,0.200905038,0.161805102,0.170404421,0.139813206,0.162899948,0.123482251,0.171523576,0.150372854,0.148068997,0.154416628,0.140926993,0.17064508,0.17619715,0.136101606,0.175680696,0.170115957,0.140620095,0.141313939,0.15513116,0.163386761,0.170916783,0.149091221,0.129280092,0.157708749,0.156088435,0.156023447,0.144253578,0.15423892,0.150067561,0.15734091,0.152635258,,0.15419262
DK0046_10_28_1943_mfssvep_right_2,0.159926975,0.184223879,0.160317482,0.156921495,0.149857743,0.155820277,0.204521855,0.152094387,0.197460888,0.165796945,0.187742728,0.224839522,0.162237597,0.135017604,0.168063521,0.132173378,0.193649529,0.179713764,0.208954049,0.180288751,0.201984859,0.147739712,0.203585798,0.180893634,0.15392777,0.175302526,0.176520166,0.125028752,0.183960535,0.156238927,0.156944809,0.210122702,0.15667202,0.160350794,0.180581356,0.185643079,0.115545012,0.12811098,0.166734807,0.136370091,0.214626175,0.181266094,0.124187038,0.16072953,0.148180766,0.118434319,0.135521789,0.182336293,0.159323257,0.159221231,0.128450116,0.147625961,0.145812193,0.199212348,0.169473812,0.184430156,0.135642663,0.121287497,0.137343426,0.118588633,0.195036641,0.164404388,0.142647241,0.195098461,0.167745812,0.192908695,0.135341163,0.132542672,0.160483529,0.105550278,0.169560992,0.150075293,0.168156112,0.154199838,0.184692377,0.192793065,0.155106241,0.168512224,0.197075886,0.177406382,0.168583488,0.155076071,0.174579844,0.175525077,0.136796933,0.177420787,0.144365778,0.1454308,0.148998201,0.164216834,0.16318221,0.125739852,0.167362757,0.185250989,0.142789121,0.141728854,,0.163124572
DK0048_08_25_1950_mfssvep_left_1,0.175851151,0.168118315,0.149895882,0.120805631,0.196422948,0.191920828,0.154880475,0.133167285,0.155875136,0.166655854,0.115172055,0.135670192,0.128490378,0.124388996,0.276491251,0.13463239,0.170179719,0.168733955,0.138314185,0.141210965,0.154249674,0.127960197,0.150696221,0.137669395,0.202105432,0.173111627,0.190806875,0.208069846,0.170850695,0.187206065,0.134561092,0.123055343,0.169984325,0.17827608,0.132298458,0.150487967,0.196218804,0.163381923,0.187758362,0.184246293,0.124944519,0.221159733,0.20250844,0.148766693,0.15992105,0.183578337,0.140562305,0.12933821,0.182951169,0.16082874,0.120173689,0.175794042,0.125520138,0.123212848,0.177389158,0.116066575,0.11636876,0.125351105,0.136919501,0.120019861,0.14710313,0.14898495,0.233406716,0.176951708,0.177579421,0.196718115,0.079370966,0.136892862,0.155078685,0.113515976,0.1089947,0.121490287,0.164621783,0.169716469,0.147974299,0.139166034,0.176456875,0.157848688,0.144591608,0.138775271,0.188674645,0.188708869,0.142533587,0.153687501,0.182453029,0.176783515,0.170398728,0.151159618,0.154651199,0.141509009,0.136608164,0.127430156,0.176498265,0.183749748,0.123780838,0.114666987,,0.15635187
DK0048_08_25_1950_mfssvep_left_2,0.246277141,0.237434956,0.201238533,0.158053711,0.176367951,0.167275238,0.189241795,0.16374021,0.138865463,0.127810475,0.227260163,0.153395266,0.214942904,0.195663772,0.132326813,0.186194482,0.182203267,0.138084765,0.132068159,0.176022734,0.108705488,0.151734181,0.146203095,0.116765753,0.178391328,0.208095056,0.187870879,0.151000977,0.174320437,0.181955484,0.121932693,0.134794973,0.168375585,0.098886734,0.138905587,0.126689431,0.148205056,0.149988243,0.154118665,0.192330397,0.125914007,0.222546437,0.159027806,0.200418975,0.130612754,0.151752517,0.15947641,0.159122389,0.191244309,0.241321037,0.18281105,0.131445677,0.156993762,0.146369516,0.112421418,0.168752524,0.21011767,0.139292016,0.150862709,0.237087294,0.194602925,0.214933792,0.189672098,0.147062946,0.176939753,0.206713486,0.144303788,0.126474599,0.170573593,0.148015629,0.12316246,0.165919556,0.228316877,0.1672323,0.163949156,0.169488635,0.18097783,0.168827505,0.138932127,0.138234343,0.191452421,0.169092299,0.141701084,0.121493917,0.150770655,0.180263614,0.163353178,0.156783772,0.205125465,0.144936318,0.163763871,0.17574734,0.199736272,0.176905395,0.147117327,0.145699215,,0.166245871
DK0048_08_25_1950_mfssvep_right_1,0.148630093,0.161402569,0.16865512,0.170173093,0.197212029,0.199514545,0.186633888,0.162079617,0.140005256,0.153153887,0.148297651,0.164976321,0.151137203,0.202499989,0.223372426,0.134838412,0.18164422,0.174710166,0.129167335,0.158966307,0.151327333,0.145322721,0.149745045,0.142709003,0.196770131,0.167673869,0.119689517,0.21868197,0.19296866,0.11130887,0.17459657,0.140650008,0.108974231,0.15669493,0.1610856,0.107514195,0.192380212,0.21758145,0.164331764,0.176167192,0.171745969,0.139480515,0.182168741,0.14575468,0.144612752,0.125657874,0.143128465,0.163052213,0.151374535,0.17475426,0.233317137,0.148399406,0.164068211,0.155856681,0.188007181,0.157372821,0.184329499,0.183089322,0.150461243,0.129546029,0.161777953,0.173403673,0.109038765,0.135856583,0.168298329,0.103869285,0.142971218,0.14704301,0.113010585,0.14307703,0.126690529,0.100295887,0.159562594,0.188966556,0.162906254,0.155475953,0.192336539,0.163730932,0.146486992,0.14592559,0.161377839,0.174319833,0.141406936,0.141764908,0.191431142,0.162464559,0.157512057,0.143946184,0.186481977,0.156108099,0.176569834,0.154365531,0.148073464,0.136008066,0.134341604,0.123354482,,0.158538247
DK0048_08_25_1950_mfssvep_right_2,0.149745022,0.186536154,0.202985942,0.167457517,0.149164685,0.143577373,0.12782835,0.156549356,0.151116508,0.16038061,0.141260557,0.156145192,0.130453539,0.17334918,0.200886597,0.144958422,0.141131338,0.127836415,0.156306192,0.126050752,0.15400049,0.117390526,0.157929294,0.158768198,0.186135817,0.23345729,0.176068975,0.156304688,0.160140669,0.164827098,0.120411354,0.157028521,0.182822045,0.164915201,0.147476904,0.192032216,0.1711999,0.195358502,0.205743118,0.159177553,0.154874907,0.161249348,0.135585344,0.149902132,0.171077457,0.141302388,0.126354218,0.187237134,0.178798303,0.183890926,0.207419127,0.115280434,0.202282337,0.151292274,0.141131747,0.15010125,0.166142409,0.137415078,0.162997141,0.149199302,0.166810228,0.199064878,0.225714804,0.115144776,0.153580908,0.169400232,0.122367705,0.204632203,0.192399977,0.119044009,0.150815058,0.150353992,0.179755706,0.153399858,0.145164738,0.152595453,0.168229772,0.137975391,0.145452478,0.144696006,0.198554027,0.160424151,0.15342064,0.168141441,0.190767174,0.158433936,0.152188311,0.151631247,0.190036119,0.156285015,0.152458469,0.149870507,0.197196637,0.146041972,0.173133295,0.14007102,,0.16108014
CCA MEAN PER PATTERN PER FREQ,,,,,,,,,,,,,,,,,,,,,,,,,,,,,,,,,,,,,,,,,,,,,,,,,,,,,,,,,,,,,,,,,,,,,,,,,0.182746331,0.19115736,0.173977274,0.165049132,0.181197657,0.193132096,0.161624684,0.156974139,0.185664365,0.181170259,0.166382251,0.151579849,0.177982664,0.19092954,0.178959033,0.155401131,0.18886872,0.188274791,0.178831451,0.15714669,0.182434103,0.184847031,0.178909298,0.151299084,,0.175189122
CCA MEAN PER PATTERN,,,,,,,,,,,,,,,,,,,,,,,,,,,,,,,,,,,,,,,,,,,,,,,,,,,,,,,,,,,,,,,,,,,,,,,,,0.178232524,,,,0.173232144,,,,0.171199181,,,,0.175818092,,,,0.178280413,,,,0.174372379,,,,,
