filename,p11_f8_t1,p11_f8_t2,p11_f8_t3,p11_f9_t1,p11_f9_t2,p11_f9_t3,p11_f10_t1,p11_f10_t2,p11_f10_t3,p11_f11_t1,p11_f11_t2,p11_f11_t3,p12_f8_t1,p12_f8_t2,p12_f8_t3,p12_f9_t1,p12_f9_t2,p12_f9_t3,p12_f10_t1,p12_f10_t2,p12_f10_t3,p12_f11_t1,p12_f11_t2,p12_f11_t3,p13_f8_t1,p13_f8_t2,p13_f8_t3,p13_f9_t1,p13_f9_t2,p13_f9_t3,p13_f10_t1,p13_f10_t2,p13_f10_t3,p13_f11_t1,p13_f11_t2,p13_f11_t3,p14_f8_t1,p14_f8_t2,p14_f8_t3,p14_f9_t1,p14_f9_t2,p14_f9_t3,p14_f10_t1,p14_f10_t2,p14_f10_t3,p14_f11_t1,p14_f11_t2,p14_f11_t3,p15_f8_t1,p15_f8_t2,p15_f8_t3,p15_f9_t1,p15_f9_t2,p15_f9_t3,p15_f10_t1,p15_f10_t2,p15_f10_t3,p15_f11_t1,p15_f11_t2,p15_f11_t3,p16_f8_t1,p16_f8_t2,p16_f8_t3,p16_f9_t1,p16_f9_t2,p16_f9_t3,p16_f10_t1,p16_f10_t2,p16_f10_t3,p16_f11_t1,p16_f11_t2,p16_f11_t3,p11_f8_cca_max_mean,p11_f9_cca_max_mean,p11_f10_cca_max_mean,p11_f11_cca_max_mean,p12_f8_cca_max_mean,p12_f9_cca_max_mean,p12_f10_cca_max_mean,p12_f11_cca_max_mean,p13_f8_cca_max_mean,p13_f9_cca_max_mean,p13_f10_cca_max_mean,p13_f11_cca_max_mean,p14_f8_cca_max_mean,p14_f9_cca_max_mean,p14_f10_cca_max_mean,p14_f11_cca_max_mean,p15_f8_cca_max_mean,p15_f9_cca_max_mean,p15_f10_cca_max_mean,p15_f11_cca_max_mean,p16_f8_cca_max_mean,p16_f9_cca_max_mean,p16_f10_cca_max_mean,p16_f11_cca_max_mean,p11_f8_cca_max_max,p11_f9_cca_max_max,p11_f10_cca_max_max,p11_f11_cca_max_max,p12_f8_cca_max_max,p12_f9_cca_max_max,p12_f10_cca_max_max,p12_f11_cca_max_max,p13_f8_cca_max_max,p13_f9_cca_max_max,p13_f10_cca_max_max,p13_f11_cca_max_max,p14_f8_cca_max_max,p14_f9_cca_max_max,p14_f10_cca_max_max,p14_f11_cca_max_max,p15_f8_cca_max_max,p15_f9_cca_max_max,p15_f10_cca_max_max,p15_f11_cca_max_max,p16_f8_cca_max_max,p16_f9_cca_max_max,p16_f10_cca_max_max,p16_f11_cca_max_max
DK0006_10_12_1947_mfssvep_left_2,0.178053082800622,0.164846995581059,0.180956373342576,0.457355050485155,0.247367484241184,0.367571932076539,0.257264203452251,0.158555772407366,0.250577766462267,0.302876003069892,0.163862106935223,0.159175400536738,0.217682442549917,0.170038164789528,0.180941586560014,0.165778778452107,0.323128875580303,0.418050132398383,0.205409597314856,0.166552398159814,0.236271489216126,0.184292619767942,0.176922799031316,0.182785344408657,0.185351975230133,0.234406288188019,0.135132323171257,0.380011653027846,0.149418227447154,0.1648705846106,0.165939829194369,0.149358846354853,0.278401881630663,0.126888823647831,0.173485104196816,0.145686084890014,0.15462623450608,0.341452423055085,0.205968281562878,0.349976416995389,0.184318946134481,0.212125561158555,0.217634412209384,0.201348603244491,0.272365964203143,0.157394188088632,0.188556993502549,0.188674744534494,0.190402601776432,0.228875863058304,0.214714186811351,0.549182046414826,0.172877729723254,0.208699046317957,0.164434821204652,0.206936673365498,0.232628147026811,0.141383467678843,0.154141003932506,0.163266109978236,0.168861690451147,0.142701257408876,0.174364745310461,0.152846076962724,0.164473707290256,0.270600448327225,0.189742773317502,0.214473270271704,0.214977651541088,0.184084058321985,0.173539369798109,0.166969005940536,0.174618817241419,0.357431488934293,0.222132580773962,0.208637836847284,0.189554064633153,0.302319262143598,0.202744494896932,0.181333587735972,0.184963528863136,0.231433488361867,0.197900185726628,0.148686670911554,0.234015646374681,0.248806974762808,0.230449659885673,0.178208642041892,0.211330883882029,0.310252940818679,0.201333213865654,0.152930193863195,0.161975897723495,0.195973410860068,0.206397898376765,0.174864144686877,0.180956373342576,0.457355050485155,0.257264203452251,0.302876003069892,0.217682442549917,0.418050132398383,0.236271489216126,0.184292619767942,0.234406288188019,0.380011653027846,0.278401881630663,0.173485104196816,0.341452423055085,0.349976416995389,0.272365964203143,0.188674744534494,0.228875863058304,0.549182046414826,0.232628147026811,0.163266109978236,0.174364745310461,0.270600448327225,0.214977651541088,0.184084058321985
DK0006_10_12_1947_mfssvep_right_2,0.200313751988967,0.21316624252787,0.170849131853786,0.162524126148131,0.240642928650543,0.149037378310343,0.202771261995069,0.287522189887295,0.282791356140238,0.153257876275513,0.185638712230035,0.202208911452533,0.200825264869909,0.147307028009664,0.148810656870609,0.246045760294977,0.475613308740964,0.157530640729073,0.179867769180324,0.201381496130121,0.14738228799758,0.17585938965355,0.200831394002213,0.118246926365276,0.250240394705041,0.16068231975672,0.180490498276866,0.435670350887678,0.134775059016545,0.168975756425905,0.154737561107285,0.239693721777983,0.223186383459838,0.160082658170576,0.13575042059649,0.205983577260076,0.213671641941985,0.18578291953104,0.146626582564421,0.278054614999114,0.313371467418942,0.143575638565752,0.25789815381778,0.249091662885875,0.380215818387314,0.19081283206647,0.212460558135227,0.122135098064207,0.209373061359195,0.203431095779409,0.174202134519349,0.457474415325643,0.439580119589695,0.151597991307146,0.206740133624656,0.257783517127002,0.24572790009566,0.18714912663209,0.203810435668261,0.146093017272156,0.258147443477922,0.185715459525951,0.159543983253948,0.275587091443738,0.218465346971948,0.326662409571512,0.303290420682624,0.523640146415203,0.314086925672596,0.199528254322532,0.174300449913692,0.158548241696743,0.194776375456874,0.184068144369672,0.257694936007534,0.180368499986027,0.165647649916727,0.293063236588338,0.176210517769342,0.16497923667368,0.197137737579542,0.246473722110043,0.205872555448369,0.167272218675714,0.182027048012482,0.245000573661269,0.29573521169699,0.175136162755301,0.195668763885984,0.349550842074161,0.236750516949106,0.179017526524169,0.201135628752607,0.273571615995733,0.380339164256807,0.177458981977656,0.21316624252787,0.240642928650543,0.287522189887295,0.202208911452533,0.200825264869909,0.475613308740964,0.201381496130121,0.200831394002213,0.250240394705041,0.435670350887678,0.239693721777983,0.205983577260076,0.213671641941985,0.313371467418942,0.380215818387314,0.212460558135227,0.209373061359195,0.457474415325643,0.257783517127002,0.203810435668261,0.258147443477922,0.326662409571512,0.523640146415203,0.199528254322532
DK0015_05_30_1949_mfssvep_left_1,0.219050336941693,0.168176588734196,0.200369710718669,0.181881296261316,0.26897457180887,0.185590345409383,0.125957421012491,0.198157410385767,0.166627213179004,0.148782763193159,0.148046042726277,0.140785556709001,0.196900464096202,0.179182148536466,0.269030317116896,0.175953336773397,0.228498277949536,0.21425842623348,0.171070277516508,0.145505170469776,0.161885455781764,0.149031875314734,0.148626682955578,0.16652871230772,0.187555873890956,0.197083581139492,0.171387859271623,0.214609850601027,0.150874143819307,0.140927138146865,0.190502211114612,0.176992727182033,0.18986828236363,0.170530982096021,0.150827201552264,0.146519683974436,0.159418158501818,0.234661100675427,0.219412138842804,0.161959094162401,0.190844874859911,0.225080437057452,0.127033219496602,0.175542789478277,0.180849516899134,0.129772084908014,0.149453148098304,0.147550175055735,0.146774848548489,0.226969106002761,0.172089510256773,0.158529746176098,0.164352439747355,0.194511911070947,0.175591170147701,0.241329900178164,0.202489546187199,0.180733965994863,0.219193016352053,0.210973539704772,0.180366329456233,0.22079175217385,0.212326842013451,0.196431236655133,0.178869828491505,0.196705441871243,0.114980115374704,0.139955392705543,0.142804280652933,0.145132677290301,0.126604112359268,0.178018556838292,0.195865545464853,0.212148737826523,0.163580681525754,0.145871454209479,0.215037643249855,0.206236680318804,0.159486967922682,0.154729090192678,0.18534243810069,0.168803710855733,0.185787740220092,0.155959289207574,0.204497132673349,0.192628135359921,0.161141841958004,0.142258469354017,0.181944488269341,0.172464698998133,0.206470205504354,0.203633507350563,0.204494974547845,0.190668835672627,0.132579929577726,0.149918448829287,0.219050336941693,0.26897457180887,0.198157410385767,0.148782763193159,0.269030317116896,0.228498277949536,0.171070277516508,0.16652871230772,0.197083581139492,0.214609850601027,0.190502211114612,0.170530982096021,0.234661100675427,0.225080437057452,0.180849516899134,0.149453148098304,0.226969106002761,0.194511911070947,0.241329900178164,0.219193016352053,0.22079175217385,0.196705441871243,0.142804280652933,0.178018556838292
DK0015_05_30_1949_mfssvep_left_2,0.156413455338768,0.209644953488503,0.25145449074267,0.163045505390339,0.215281032217779,0.213835607165394,0.110127690435333,0.133110891777262,0.144463121069516,0.152746470082922,0.141621900433405,0.156618774346495,0.282653053791245,0.155492529695529,0.209486286160803,0.201538884522871,0.15224050202766,0.189478093355449,0.209639194779275,0.157913483117879,0.15145136902587,0.159105455081335,0.141545258093953,0.225642707955373,0.189363027015234,0.216358978601787,0.204632535302205,0.202674177445878,0.160496327128118,0.230023517629507,0.157227989121037,0.243429175601879,0.197969404540843,0.0944628757014145,0.154436873194992,0.189687473784599,0.181678913350612,0.208696377543102,0.155666703434801,0.16910060571146,0.205376476666273,0.224106978105585,0.196117018241707,0.144259118904769,0.148049485181375,0.206825033920439,0.226406724791329,0.185027454176078,0.256734704331219,0.242402400533315,0.216155827243307,0.147112308092898,0.196715479914122,0.206666931680967,0.161115538702759,0.166293290856717,0.182373714020684,0.164017869515055,0.196852811678076,0.160215877046022,0.181781385483719,0.174163309604856,0.189489604724383,0.211224664757245,0.177926985391938,0.163291411541801,0.210301832747001,0.160507346437327,0.158072679787532,0.120023248917302,0.163572981031441,0.188673245473986,0.20583763318998,0.197387381591171,0.129233901094037,0.150329048287607,0.215877289882526,0.181085826635327,0.173001348974341,0.175431140376887,0.203451513639742,0.197731340734501,0.199542189754587,0.146195740893669,0.182013998109505,0.199528020161106,0.16280854077595,0.206086404295949,0.23843097736928,0.183498239895996,0.16992751452672,0.173695519413051,0.181811433270986,0.184147687230328,0.17629395299062,0.157423158474243,0.25145449074267,0.215281032217779,0.144463121069516,0.156618774346495,0.282653053791245,0.201538884522871,0.209639194779275,0.225642707955373,0.216358978601787,0.230023517629507,0.243429175601879,0.189687473784599,0.208696377543102,0.224106978105585,0.196117018241707,0.226406724791329,0.256734704331219,0.206666931680967,0.182373714020684,0.196852811678076,0.189489604724383,0.211224664757245,0.210301832747001,0.188673245473986
DK0015_05_30_1949_mfssvep_right_1,0.188088787992039,0.210834371604525,0.198033255276038,0.148469669812748,0.215676659246098,0.184135690999369,0.176189927511323,0.17414478729064,0.230038272495717,0.133170207993756,0.175927286388605,0.22544483314396,0.185573105808308,0.173084784719906,0.212089662859574,0.189270846476465,0.20212871592257,0.265116723551316,0.144523055021467,0.160810731460681,0.175110860021313,0.120033591346439,0.168782745415905,0.17285225070162,0.214681506631324,0.239303361832112,0.284737638321139,0.206853560103765,0.198675913607273,0.16291451143957,0.130615853065186,0.158198030153226,0.132891956178328,0.112962552236049,0.145476119535377,0.128445236396475,0.183490189777192,0.173502502806528,0.208934737114301,0.168916668566378,0.220713271208323,0.206683003303908,0.208725849093959,0.196207617041695,0.195530946591895,0.182832818949471,0.149064659578439,0.162193468882422,0.179364109195328,0.192359410378636,0.309532060757454,0.129362759040313,0.181312987935226,0.195280952288215,0.203335084984433,0.168442494569746,0.235076248215197,0.181091951835292,0.133861816485118,0.175339662490085,0.199373611475206,0.352806194124277,0.219703664726296,0.197786292408828,0.237869393957102,0.185073080255896,0.256618562783822,0.219568968834724,0.198102270827847,0.150897282708236,0.176810166618747,0.21794504155537,0.198985471624201,0.182760673352738,0.19345766243256,0.178180775842107,0.190249184462596,0.218838761983451,0.160148215501154,0.153889529154655,0.246240835594858,0.189481328383536,0.140568613132247,0.128961302722634,0.188642476566007,0.198770981026203,0.200154804242516,0.164696982470111,0.227085193443806,0.168652233087918,0.202284609256459,0.163431143603499,0.257294490108593,0.206909588873942,0.224763267482131,0.181884163627451,0.210834371604525,0.215676659246098,0.230038272495717,0.22544483314396,0.212089662859574,0.265116723551316,0.175110860021313,0.17285225070162,0.284737638321139,0.206853560103765,0.158198030153226,0.145476119535377,0.208934737114301,0.220713271208323,0.208725849093959,0.182832818949471,0.309532060757454,0.195280952288215,0.235076248215197,0.181091951835292,0.352806194124277,0.237869393957102,0.256618562783822,0.21794504155537
DK0015_05_30_1949_mfssvep_right_2,0.217781582597669,0.180775053884935,0.239001801770979,0.19455427291126,0.202825142571194,0.185532470570515,0.105563574700368,0.193509659597932,0.164417436354208,0.149384289106028,0.166258459947339,0.150020847319268,0.195836183555391,0.167353218275791,0.203266118909524,0.152685883775375,0.188429401670406,0.143818714087937,0.164466981901823,0.150340585849499,0.186519141278111,0.137391476665782,0.197045791596834,0.168599570122326,0.169257559432173,0.17670832841379,0.169904020380522,0.161686382591409,0.159561458320622,0.233065718882232,0.174248339513311,0.152780908281164,0.210382251849431,0.114658899787067,0.139344358272466,0.237649494938663,0.114836820613544,0.161625123708401,0.174966718916102,0.164775248373846,0.169226837481083,0.202272318114731,0.197693090573039,0.209662613104216,0.140481202183414,0.147880571311105,0.131461782425935,0.128979077071011,0.215549732634815,0.215062478243117,0.153804979557501,0.247050573382014,0.145816430769775,0.146983750766804,0.120993948088861,0.213480904906747,0.163391892229157,0.200818075558947,0.131404192286241,0.148974899940149,0.198848213448761,0.168512754615893,0.165065134865454,0.267360571659072,0.172886572194773,0.19162036849958,0.143879812838245,0.197449942908955,0.165252081592385,0.139207584581302,0.22541767942566,0.134965272926784,0.212519479417861,0.194303962017656,0.154496890217503,0.155221198790878,0.188818506913569,0.161644666511239,0.167108903009811,0.167678946128314,0.171956636075495,0.184771186598088,0.179137166547969,0.163884250999399,0.150476221079349,0.178758134656553,0.182612301953556,0.136107143602683,0.194805730145144,0.179950251639531,0.165955581741589,0.160399055928446,0.177475367643369,0.210622504117808,0.168860612446528,0.166530178977916,0.239001801770979,0.202825142571194,0.193509659597932,0.166258459947339,0.203266118909524,0.188429401670406,0.186519141278111,0.197045791596834,0.17670832841379,0.233065718882232,0.210382251849431,0.237649494938663,0.174966718916102,0.202272318114731,0.209662613104216,0.147880571311105,0.215549732634815,0.247050573382014,0.213480904906747,0.200818075558947,0.198848213448761,0.267360571659072,0.197449942908955,0.22541767942566
DK0046_10_28_1943_mfssvep_left_1,0.130096409938249,0.133704795697064,0.163137954993123,0.176834261398121,0.149000145424428,0.200249419043483,0.179905838489235,0.184516879391344,0.18159066254277,0.153645906148128,0.165477470329273,0.210627940770202,0.119621891747004,0.163603622253215,0.156673065357524,0.162863372092065,0.211056832206185,0.149390583252137,0.162266008640979,0.147259793558772,0.151813424192064,0.116254964547361,0.106122397915735,0.143334612304019,0.170300105957346,0.129632894825606,0.137424039705581,0.143758443332556,0.14399836233053,0.157075011563386,0.164840979068097,0.147261263377605,0.165512113560483,0.14689778989831,0.133608901702931,0.150996992783253,0.155338245232295,0.149951872237666,0.164199112096788,0.211789555371449,0.185390374779182,0.179744102835401,0.113076080133726,0.180987745205082,0.175903547366758,0.144670297447915,0.123341840622784,0.150455407393543,0.153109121859974,0.162250242563306,0.17371748879978,0.139924459730705,0.212229122891023,0.140024506570371,0.286359738708396,0.161110716177253,0.132973237393823,0.137883893351744,0.149570634563818,0.10972464171441,0.153388568402051,0.147992175759675,0.131666958561583,0.215968917561353,0.126402209043088,0.146910950455803,0.117992524826648,0.178674706675986,0.177581619003705,0.174946195355689,0.127343773344189,0.119669623847855,0.142313053542812,0.175361275288677,0.182004460141116,0.176583772415867,0.146632859785914,0.174436929183463,0.153779742130605,0.121903991589038,0.145785680162844,0.148277272408824,0.159204785335395,0.143834561461498,0.156496409855583,0.192308010995344,0.156655790901855,0.139489181821414,0.16302561774102,0.164059363064033,0.193481230759824,0.132393056543324,0.144349234241103,0.163094025686748,0.158082950168779,0.140653197515911,0.163137954993123,0.200249419043483,0.184516879391344,0.210627940770202,0.163603622253215,0.211056832206185,0.162266008640979,0.143334612304019,0.170300105957346,0.157075011563386,0.165512113560483,0.150996992783253,0.164199112096788,0.211789555371449,0.180987745205082,0.150455407393543,0.17371748879978,0.212229122891023,0.286359738708396,0.149570634563818,0.153388568402051,0.215968917561353,0.178674706675986,0.174946195355689
DK0046_10_28_1943_mfssvep_left_2,0.117140350930608,0.12766389851582,0.20631431193236,0.138313459988999,0.134745362301204,0.171148167782968,0.100150740913446,0.147226293639098,0.215872849751912,0.112459931189256,0.148969165349954,0.161351881834392,0.163595436209576,0.15459946321706,0.193740339157869,0.195444780165529,0.175014499080171,0.158132171263355,0.121349763536927,0.140988470165862,0.145966583604561,0.155712912152842,0.153222648784473,0.218106526096341,0.150262017852319,0.166259911220015,0.193825941762763,0.110169493466453,0.167640445016582,0.144050347406302,0.132139433189918,0.134428084054127,0.157374300089009,0.158254578935281,0.144902679750615,0.16223622272815,0.161083982626441,0.186154981808109,0.142921317148344,0.154251335808432,0.210151728430588,0.148347284514089,0.118238564718791,0.177260164939596,0.15177493214892,0.166777689077901,0.115468574414495,0.105594011456607,0.136188563681998,0.173368478444404,0.163569204583252,0.147963933307865,0.140690810301849,0.179610561720438,0.14701764506009,0.198167849256255,0.122884847987275,0.13109649062831,0.180617406110451,0.121046837984799,0.132562337243685,0.164285774306756,0.165868648787673,0.0884759608168897,0.160821682564776,0.200905038459036,0.161805101543767,0.170404421492349,0.139813206293974,0.162899947982395,0.123482250614177,0.171523576214013,0.150372853792929,0.148068996691057,0.154416628101485,0.140926992791201,0.170645079528168,0.176197150169685,0.136101605769117,0.175680695677885,0.170115956945033,0.140620095296446,0.141313939111018,0.155131160471349,0.163386760527631,0.170916782917703,0.149091220602435,0.129280091649668,0.157708748903218,0.156088435110051,0.15602344743454,0.144253578241187,0.154238920112705,0.150067560613567,0.157340909776697,0.152635258270195,0.20631431193236,0.171148167782968,0.215872849751912,0.161351881834392,0.193740339157869,0.195444780165529,0.145966583604561,0.218106526096341,0.193825941762763,0.167640445016582,0.157374300089009,0.16223622272815,0.186154981808109,0.210151728430588,0.177260164939596,0.166777689077901,0.173368478444404,0.179610561720438,0.198167849256255,0.180617406110451,0.165868648787673,0.200905038459036,0.170404421492349,0.171523576214013
DK0046_10_28_1943_mfssvep_right_2,0.159926974715853,0.184223878708988,0.160317481571924,0.156921494736804,0.149857743279337,0.155820277176482,0.204521855254657,0.152094387147276,0.197460888287038,0.165796945326419,0.187742727817843,0.224839522343073,0.16223759749998,0.135017603707922,0.168063521055539,0.132173378078426,0.193649529188194,0.17971376369031,0.208954049331526,0.180288750892454,0.201984859205173,0.147739712429081,0.203585798482536,0.180893633913577,0.153927770300592,0.175302526428365,0.176520165957571,0.125028752006616,0.183960534658764,0.156238927383934,0.156944809095009,0.210122701710023,0.156672020207341,0.160350794355884,0.180581356084242,0.185643079285128,0.115545011677769,0.128110980098853,0.166734806613814,0.136370090941704,0.214626175401994,0.181266093538299,0.124187037958695,0.160729530402807,0.148180765841051,0.118434318509863,0.135521789083978,0.182336293236551,0.159323257416518,0.159221231114402,0.128450115743954,0.147625961300113,0.145812193217104,0.199212348377743,0.169473812238809,0.184430155663635,0.135642662972677,0.12128749661041,0.137343425521044,0.118588632734611,0.195036641121435,0.164404388220136,0.142647241169402,0.195098460954555,0.167745812100479,0.192908694992836,0.135341162622986,0.132542672314315,0.160483528705142,0.105550277892719,0.169560992097315,0.150075293254548,0.168156111665588,0.154199838397541,0.184692376896323,0.192793065162445,0.155106240754481,0.16851222365231,0.197075886476384,0.177406381608398,0.168583487562176,0.155076071349771,0.174579843670791,0.175525076575085,0.136796932796812,0.177420786627332,0.144365778067518,0.145430800276798,0.148998201424958,0.16421683429832,0.163182210291707,0.125739851622022,0.167362756836991,0.18525098934929,0.142789121214147,0.141728854414861,0.184223878708988,0.156921494736804,0.204521855254657,0.224839522343073,0.168063521055539,0.193649529188194,0.208954049331526,0.203585798482536,0.176520165957571,0.183960534658764,0.210122701710023,0.185643079285128,0.166734806613814,0.214626175401994,0.160729530402807,0.182336293236551,0.159323257416518,0.199212348377743,0.184430155663635,0.137343425521044,0.195036641121435,0.195098460954555,0.160483528705142,0.169560992097315
DK0048_08_25_1950_mfssvep_left_1,0.175851151495497,0.168118314726275,0.14989588232957,0.120805631274814,0.19642294844375,0.191920828030891,0.154880474900815,0.133167284588911,0.155875136214966,0.166655854190324,0.115172054520309,0.135670191956601,0.128490378196902,0.124388996014299,0.276491251408971,0.134632390169044,0.170179719340048,0.168733954737444,0.138314184788185,0.141210965177083,0.154249674373015,0.127960197229195,0.15069622074145,0.137669394899885,0.202105432305344,0.17311162713622,0.190806875339492,0.208069845860442,0.170850694893723,0.187206065420663,0.134561091881809,0.123055342733576,0.169984325432992,0.178276079627401,0.132298457833608,0.150487967027413,0.196218803905857,0.163381922603585,0.187758361823727,0.184246293196767,0.12494451933617,0.22115973288948,0.202508440247065,0.14876669310955,0.159921050067541,0.183578336871768,0.140562305495989,0.129338210478602,0.182951169370844,0.160828740046636,0.120173688724857,0.175794041772996,0.125520138331799,0.123212847918259,0.177389157707332,0.116066574578259,0.116368759615767,0.12535110473251,0.136919501370391,0.120019861207987,0.147103129830101,0.148984950097793,0.233406716230965,0.176951707798678,0.177579420881509,0.196718115477708,0.0793709658729165,0.136892862223467,0.155078684845491,0.113515975619438,0.10899469990502,0.121490286700577,0.164621782850447,0.169716469249818,0.147974298568231,0.139166033555745,0.176456875206724,0.157848688082179,0.144591608112761,0.138775270956843,0.188674644927019,0.188708868724943,0.142533586682793,0.15368750149614,0.18245302944439,0.176783515140806,0.170398727808052,0.151159617615453,0.154651199380779,0.141509009341018,0.13660816396712,0.127430155770296,0.176498265386287,0.183749748052632,0.123780837647292,0.114666987408345,0.175851151495497,0.19642294844375,0.155875136214966,0.166655854190324,0.276491251408971,0.170179719340048,0.154249674373015,0.15069622074145,0.202105432305344,0.208069845860442,0.169984325432992,0.178276079627401,0.196218803905857,0.22115973288948,0.202508440247065,0.183578336871768,0.182951169370844,0.175794041772996,0.177389157707332,0.136919501370391,0.233406716230965,0.196718115477708,0.155078684845491,0.121490286700577
DK0048_08_25_1950_mfssvep_left_2,0.24627714124489,0.237434955829685,0.201238533025605,0.158053710810995,0.176367951143703,0.167275238224145,0.189241794818366,0.163740209604361,0.13886546250834,0.12781047538744,0.227260162899246,0.153395266468541,0.214942904261363,0.195663771580684,0.132326812829694,0.186194481621538,0.182203267491961,0.138084764734851,0.132068158810345,0.176022733513087,0.108705488352689,0.151734180989705,0.146203095153673,0.116765752863137,0.178391328359957,0.208095056454465,0.187870879426182,0.151000977452638,0.174320436683708,0.181955483558861,0.121932693359273,0.1347949732622,0.168375585419301,0.0988867340628164,0.13890558650302,0.126689431313433,0.1482050557661,0.149988242772506,0.154118665250045,0.19233039737438,0.125914007270788,0.222546437136052,0.159027805635287,0.200418975445298,0.130612754243746,0.151752517121048,0.159476409681019,0.159122389472551,0.191244308500038,0.241321036594551,0.182811049842069,0.13144567708849,0.156993762417494,0.146369515567707,0.112421417973487,0.168752524078643,0.210117670482108,0.139292015841996,0.150862709485737,0.237087294356738,0.194602924598206,0.214933791922218,0.18967209835691,0.147062945843616,0.176939753058845,0.206713486085683,0.144303788029743,0.126474598861514,0.170573593187193,0.148015628944976,0.123162460198882,0.165919555507269,0.22831687670006,0.167232300059614,0.163949155643689,0.169488634918409,0.180977829557247,0.168827504616116,0.13893212689204,0.138234343002172,0.191452421413534,0.169092299231736,0.141701084013592,0.12149391729309,0.150770654596217,0.180263613927073,0.163353178441444,0.156783772091539,0.205125464978886,0.144936318357897,0.163763870844746,0.175747339894824,0.199736271625778,0.176905394996048,0.147117326692817,0.145699214883709,0.24627714124489,0.176367951143703,0.189241794818366,0.227260162899246,0.214942904261363,0.186194481621538,0.176022733513087,0.151734180989705,0.208095056454465,0.181955483558861,0.168375585419301,0.13890558650302,0.154118665250045,0.222546437136052,0.200418975445298,0.159476409681019,0.241321036594551,0.156993762417494,0.210117670482108,0.237087294356738,0.214933791922218,0.206713486085683,0.170573593187193,0.165919555507269
DK0048_08_25_1950_mfssvep_right_1,0.148630092763171,0.161402568703844,0.168655119730215,0.170173092950094,0.197212028511105,0.199514545467792,0.186633888151331,0.162079617363097,0.140005256267763,0.153153886506266,0.148297651411791,0.164976320914879,0.151137203289321,0.202499989465647,0.223372425654607,0.134838411865943,0.181644219755357,0.174710165539253,0.12916733515461,0.158966306883133,0.151327332893669,0.145322721287784,0.149745044930911,0.142709002792349,0.196770130948974,0.167673869333268,0.119689516704258,0.218681969716568,0.192968660319517,0.111308870381292,0.174596570382983,0.140650007578391,0.108974230998521,0.15669492959004,0.161085599916961,0.107514194514156,0.192380211706833,0.21758145007874,0.164331764398839,0.176167192247919,0.171745968546623,0.139480515294088,0.182168741034477,0.145754679755238,0.144612751650997,0.125657874454784,0.143128465179377,0.163052213420209,0.151374535324279,0.174754259910937,0.233317137233124,0.148399405837296,0.164068210858114,0.155856681395552,0.188007180507046,0.157372821270383,0.184329498895377,0.183089322068862,0.15046124250823,0.129546028519116,0.161777953437624,0.173403673286539,0.109038764585395,0.135856583246292,0.168298329245656,0.103869284799577,0.142971217574549,0.14704300995737,0.113010584556042,0.143077030006781,0.126690529460697,0.100295887191434,0.15956259373241,0.188966555642997,0.162906253927397,0.155475952944312,0.192336539469858,0.163730932386851,0.146486991643804,0.145925589670348,0.1613778389955,0.174319833472459,0.141406936319965,0.141764908007052,0.191431142061471,0.16246455869621,0.157512057480237,0.143946184351456,0.186481977489447,0.156108099363654,0.176569833557602,0.154365531032069,0.148073463769853,0.136008065763842,0.13434160402932,0.123354482219637,0.168655119730215,0.199514545467792,0.186633888151331,0.164976320914879,0.223372425654607,0.181644219755357,0.158966306883133,0.149745044930911,0.196770130948974,0.218681969716568,0.174596570382983,0.161085599916961,0.21758145007874,0.176167192247919,0.182168741034477,0.163052213420209,0.233317137233124,0.164068210858114,0.188007180507046,0.183089322068862,0.173403673286539,0.168298329245656,0.14704300995737,0.143077030006781
DK0048_08_25_1950_mfssvep_right_2,0.149745021888813,0.186536153565119,0.202985942300181,0.167457516548489,0.149164684988127,0.143577373077166,0.127828350098805,0.15654935614504,0.151116508273982,0.160380610020396,0.141260556572173,0.156145192378311,0.130453539076068,0.173349180452463,0.200886597124401,0.144958421594612,0.141131337515251,0.127836415355041,0.15630619195654,0.126050751751743,0.154000490324092,0.117390526457247,0.15792929376716,0.158768198366188,0.186135816590577,0.233457290062813,0.176068975070502,0.156304687816076,0.160140668855428,0.164827097536899,0.120411354193074,0.157028521091982,0.182822045198798,0.164915201486502,0.147476903708864,0.192032216497864,0.171199900171816,0.195358502051815,0.205743118351739,0.159177552677095,0.154874907321466,0.161249348111041,0.135585343905767,0.149902131693402,0.171077457306037,0.141302387579844,0.126354218293751,0.18723713382198,0.178798302958312,0.183890926298255,0.207419126602947,0.115280434369694,0.202282336753807,0.151292274046533,0.141131747101639,0.15010125028633,0.166142409071949,0.137415078272441,0.162997140875176,0.149199302402212,0.166810227891013,0.199064877587384,0.225714804069594,0.115144776353148,0.153580908419888,0.169400232020913,0.12236770495511,0.204632203438398,0.192399976937088,0.119044008758481,0.150815057741831,0.15035399241253,0.179755705918038,0.153399858204594,0.145164738172609,0.152595452990293,0.168229772217644,0.137975391488301,0.145452478010792,0.144696006196865,0.198554027241297,0.160424151402801,0.153420640161285,0.16814144056441,0.190767173525123,0.158433936036534,0.152188310968402,0.151631246565192,0.190036118619838,0.156285015056678,0.152458468819973,0.149870507183277,0.197196636515997,0.14604197226465,0.173133295110198,0.140071019637614,0.202985942300181,0.167457516548489,0.15654935614504,0.160380610020396,0.200886597124401,0.144958421594612,0.15630619195654,0.158768198366188,0.233457290062813,0.164827097536899,0.182822045198798,0.192032216497864,0.205743118351739,0.161249348111041,0.171077457306037,0.18723713382198,0.207419126602947,0.202282336753807,0.166142409071949,0.162997140875176,0.225714804069594,0.169400232020913,0.204632203438398,0.150815057741831
